Part 1 Exercises
…
I played around with a variety of scale_colour options to see if I could improve on the default option. But this seems to be the clearest and most aesthetically pleasing.

Several would not provide out, since they are looking for continuous data, so return errors.

A couple, like Brewer, do work, but return narrower colour bands and truncate the data, because theres too much of it. I clearly need to look into that in more detail.

some options return very similar results, with Discrete and Hue being nearly indistinguishable.

Exercise 3 - nycflights13

#Exercise 3 - plot different variables using nycflights13
library(nycflights13)
select(flights, origin, dep_delay, carrier)

## # A tibble: 336,776 x 3
##    origin dep_delay carrier
##    <chr>      <dbl> <chr>  
##  1 EWR            2 UA     
##  2 LGA            4 UA     
##  3 JFK            2 AA     
##  4 JFK           -1 B6     
##  5 LGA           -6 DL     
##  6 EWR           -4 UA     
##  7 EWR           -5 B6     
##  8 LGA           -3 EV     
##  9 JFK           -3 B6     
## 10 LGA           -2 AA     
## # ... with 336,766 more rows
…
This is a work in progress. Im still trying to work out how to show the airport and carrier with the worst delays, so you can determine which combination will most likely cause you problems. Not entirely happy with this, but Im going to move on, as I feel Im a little behind. I will come back and play with this some more as time permits.

# Exercise 4 - pick a dataset and use facet_wrap() or patchwork
diamonds

## # A tibble: 53,940 x 10
##    carat cut       color clarity depth table price     x     y     z
##    <dbl> <ord>     <ord> <ord>   <dbl> <dbl> <int> <dbl> <dbl> <dbl>
##  1 0.23  Ideal     E     SI2      61.5    55   326  3.95  3.98  2.43
##  2 0.21  Premium   E     SI1      59.8    61   326  3.89  3.84  2.31
##  3 0.23  Good      E     VS1      56.9    65   327  4.05  4.07  2.31
##  4 0.290 Premium   I     VS2      62.4    58   334  4.2   4.23  2.63
##  5 0.31  Good      J     SI2      63.3    58   335  4.34  4.35  2.75
##  6 0.24  Very Good J     VVS2     62.8    57   336  3.94  3.96  2.48
##  7 0.24  Very Good I     VVS1     62.3    57   336  3.95  3.98  2.47
##  8 0.26  Very Good H     SI1      61.9    55   337  4.07  4.11  2.53
##  9 0.22  Fair      E     VS2      65.1    61   337  3.87  3.78  2.49
## 10 0.23  Very Good H     VS1      59.4    61   338  4     4.05  2.39
## # ... with 53,930 more rows

slice(diamonds, 1:100)

## # A tibble: 100 x 10
##    carat cut       color clarity depth table price     x     y     z
##    <dbl> <ord>     <ord> <ord>   <dbl> <dbl> <int> <dbl> <dbl> <dbl>
##  1 0.23  Ideal     E     SI2      61.5    55   326  3.95  3.98  2.43
##  2 0.21  Premium   E     SI1      59.8    61   326  3.89  3.84  2.31
##  3 0.23  Good      E     VS1      56.9    65   327  4.05  4.07  2.31
##  4 0.290 Premium   I     VS2      62.4    58   334  4.2   4.23  2.63
##  5 0.31  Good      J     SI2      63.3    58   335  4.34  4.35  2.75
##  6 0.24  Very Good J     VVS2     62.8    57   336  3.94  3.96  2.48
##  7 0.24  Very Good I     VVS1     62.3    57   336  3.95  3.98  2.47
##  8 0.26  Very Good H     SI1      61.9    55   337  4.07  4.11  2.53
##  9 0.22  Fair      E     VS2      65.1    61   337  3.87  3.78  2.49
## 10 0.23  Very Good H     VS1      59.4    61   338  4     4.05  2.39
## # ... with 90 more rows
…
